\relax 
\providecommand*{\memsetcounter}[2]{}
\catcode`"\active
\select@language{brazilian}
\@writefile{toc}{\select@language{brazilian}}
\@writefile{lof}{\select@language{brazilian}}
\@writefile{lot}{\select@language{brazilian}}
\@writefile{toc}{\contentsline {part}{Mare nostrum}{5}}
\@input{INPUTS.aux}
\ttl@finishall
\memsetcounter{lastsheet}{158}
\memsetcounter{lastpage}{158}
